…
  n_solved...
  n_total...
  
  
  prop.test(.....)
  
}


homicide_df %>% 
  nest(data = resolved)
```

    ## # A tibble: 50 x 2
    ##    city_state     data                
    ##    <chr>          <list>              
    ##  1 Albuquerque_NM <tibble [378 x 1]>  
    ##  2 Atlanta_GA     <tibble [973 x 1]>  
    ##  3 Baltimore_MD   <tibble [2,827 x 1]>
    ##  4 Baton Rouge_LA <tibble [424 x 1]>  
    ##  5 Birmingham_AL  <tibble [800 x 1]>  
    ##  6 Boston_MA      <tibble [614 x 1]>  
    ##  7 Buffalo_NY     <tibble [521 x 1]>  
    ##  8 Charlotte_NC   <tibble [687 x 1]>  
    ##  9 Chicago_IL     <tibble [5,535 x 1]>
    ## 10 Cincinnati_OH  <tibble [694 x 1]>  
    ## # ... with 40 more rows
…
